graph G {
  1 [ label="DataOutputStream.<init> L103" shape="box" ];
  2 [ ];
  3 [ ];
  4 [ label="ByteArrayOutputStream.<init> L102" shape="box" ];
  5 [ label="ByteArrayOutputStream.toByteArray() L107" shape="box" ];
  4 -- 1 [ label="order" style="bold" ];
  4 -- 5 [ label="order" style="bold" ];
  1 -- 5 [ label="order" style="bold" ];
}
