graph G {
  1 [ label="Context.getSystemService() L38" shape="box" ];
  2 [ label="Context.startService() L42" shape="box" ];
  3 [ ];
  4 [ label="Context.startService() L43" shape="box" ];
  5 [ label="Context.startService() L46" shape="box" ];
  6 [ label="Context" shape="ellipse" ];
  7 [ label="Intent.getExtras() L30" shape="box" ];
  7 -- 5 [ label="order" style="bold" ];
  7 -- 2 [ label="order" style="bold" ];
  1 -- 4 [ label="order" style="bold" ];
  6 -- 1 [ label="recv" style="solid" ];
  7 -- 4 [ label="order" style="bold" ];
  1 -- 2 [ label="order" style="bold" ];
  2 -- 4 [ label="order" style="bold" ];
  6 -- 4 [ label="recv" style="solid" ];
  6 -- 5 [ label="recv" style="solid" ];
  7 -- 1 [ label="order" style="bold" ];
  6 -- 2 [ label="recv" style="solid" ];
}
