graph G {
  1 [ label="DataOutputStream" shape="ellipse" ];
  2 [ label="ByteArrayOutputStream.<init> L89" shape="box" ];
  3 [ label="DataOutputStream.<init> L90" shape="box" ];
  3 -- 1 [ label="def" style="solid" ];
  2 -- 3 [ label="order" style="bold" ];
}
