graph G {
  1 [ label="DataOutputStream" shape="ellipse" ];
  2 [ label="ByteArrayOutputStream.toByteArray() L153" shape="box" ];
  3 [ label="ByteArrayOutputStream.<init> L133" shape="box" ];
  4 [ label="DataOutputStream.<init> L134" shape="box" ];
  4 -- 1 [ label="def" style="solid" ];
  4 -- 2 [ label="order" style="bold" ];
  3 -- 4 [ label="order" style="bold" ];
  3 -- 2 [ label="order" style="bold" ];
}
