graph G {
  1 [ label="StringTokenizer.nextToken() L706" shape="box" ];
  2 [ label="StringTokenizer.nextToken() L697" shape="box" ];
  3 [ label="StringTokenizer.nextToken() L703" shape="box" ];
  4 [ label="StringTokenizer.nextToken() L699" shape="box" ];
  5 [ label="StringTokenizer.nextToken() L698" shape="box" ];
  6 [ label="StringTokenizer.nextToken() L705" shape="box" ];
  7 [ label="StringTokenizer" shape="ellipse" ];
  8 [ ];
  5 -- 6 [ label="sel" style="bold" ];
  5 -- 1 [ label="sel" style="bold" ];
  2 -- 6 [ label="order" style="bold" ];
  2 -- 5 [ label="order" style="bold" ];
  5 -- 3 [ label="sel" style="bold" ];
  4 -- 3 [ label="order" style="bold" ];
  5 -- 6 [ label="order" style="bold" ];
  7 -- 2 [ label="recv" style="solid" ];
  4 -- 1 [ label="sel" style="bold" ];
  2 -- 4 [ label="order" style="bold" ];
  4 -- 1 [ label="order" style="bold" ];
  5 -- 4 [ label="order" style="bold" ];
  5 -- 1 [ label="order" style="bold" ];
  7 -- 6 [ label="recv" style="solid" ];
  4 -- 6 [ label="sel" style="bold" ];
  7 -- 5 [ label="recv" style="solid" ];
  7 -- 4 [ label="recv" style="solid" ];
  5 -- 3 [ label="order" style="bold" ];
  7 -- 3 [ label="recv" style="solid" ];
  3 -- 6 [ label="order" style="bold" ];
  2 -- 1 [ label="order" style="bold" ];
  6 -- 1 [ label="order" style="bold" ];
  2 -- 3 [ label="order" style="bold" ];
  4 -- 6 [ label="order" style="bold" ];
  4 -- 3 [ label="sel" style="bold" ];
  7 -- 1 [ label="recv" style="solid" ];
  3 -- 1 [ label="order" style="bold" ];
}
